["ADD_JUMON", ["Blauta"], 0]
["ADD_JUMON", ["Blauta"], 1]
["ADD_JUMON", ["Plodher"], 2]
["ADD_JUMON", ["Plodher"], 3]
["INIT_MATCH", 3, 3]
["GAMESTATE", {"ARENA_TILES": [[0, -1, -1], [2, -1, -1], [-1, -1, -1]], "PP_JUMONS": [1, 3], "PLAYER1_HAND": [], "PLAYER2_HAND": []}]
