["ADD_JUMON", ["Blauta"], 0]
["ADD_JUMON", ["Blauta"], 1]
["ADD_JUMON", ["Plodher"], 2]
["ADD_JUMON", ["Plodher"], 3]
["INIT_MATCH", 3, 3]
["GAMESTATE", {"ARENA_TILES": [[-1, -1, -1], [-1, -1, -1], [-1, -1, -1]], "PP_JUMONS": [2, 3], "PLAYER1_HAND": [0], "PLAYER2_HAND": [1]}]
["TURN_STARTS"]
