info face="Booter - Zero Zero" size=32 bold=0 italic=0 charset="" unicode=1 stretchH=0 smooth=0 aa=1 padding=0,0,0,0 spacing=0,0 outline=0
common lineHeight=33 base=24 scaleW=256 scaleH=256 pages=1 packed=0 alphaChnl=0 redChnl=0 greenChnl=0 blueChnl=0
page id=0 file="BOOTERZZ.ttf_0.png"
chars count=95
char id=32 x=0 y=0 width=0 height=0 xoffset=0 yoffset=0 xadvance=5 page=0 chnl=15
char id=33 x=62 y=16 width=3 height=16 xoffset=1 yoffset=8 xadvance=5 page=0 chnl=15
char id=34 x=39 y=247 width=7 height=9 xoffset=0 yoffset=7 xadvance=7 page=0 chnl=15
char id=35 x=36 y=183 width=9 height=14 xoffset=1 yoffset=9 xadvance=11 page=0 chnl=15
char id=36 x=36 y=109 width=8 height=17 xoffset=0 yoffset=8 xadvance=8 page=0 chnl=15
char id=37 x=10 y=182 width=11 height=16 xoffset=1 yoffset=8 xadvance=13 page=0 chnl=15
char id=38 x=26 y=16 width=12 height=20 xoffset=1 yoffset=10 xadvance=13 page=0 chnl=15
char id=39 x=35 y=230 width=3 height=7 xoffset=0 yoffset=8 xadvance=4 page=0 chnl=15
char id=40 x=21 y=182 width=7 height=24 xoffset=1 yoffset=7 xadvance=6 page=0 chnl=15
char id=41 x=23 y=146 width=7 height=24 xoffset=-1 yoffset=7 xadvance=6 page=0 chnl=15
char id=42 x=37 y=197 width=7 height=8 xoffset=0 yoffset=9 xadvance=7 page=0 chnl=15
char id=43 x=38 y=74 width=9 height=12 xoffset=1 yoffset=10 xadvance=11 page=0 chnl=15
char id=44 x=31 y=230 width=4 height=7 xoffset=0 yoffset=21 xadvance=4 page=0 chnl=15
char id=45 x=14 y=37 width=7 height=2 xoffset=0 yoffset=18 xadvance=7 page=0 chnl=15
char id=46 x=21 y=37 width=4 height=3 xoffset=0 yoffset=21 xadvance=4 page=0 chnl=15
char id=47 x=38 y=16 width=10 height=20 xoffset=0 yoffset=7 xadvance=10 page=0 chnl=15
char id=48 x=24 y=130 width=9 height=16 xoffset=0 yoffset=8 xadvance=10 page=0 chnl=15
char id=49 x=42 y=53 width=7 height=15 xoffset=0 yoffset=9 xadvance=7 page=0 chnl=15
char id=50 x=33 y=130 width=9 height=15 xoffset=0 yoffset=9 xadvance=8 page=0 chnl=15
char id=51 x=42 y=126 width=8 height=15 xoffset=0 yoffset=9 xadvance=8 page=0 chnl=15
char id=52 x=28 y=78 width=10 height=15 xoffset=0 yoffset=9 xadvance=10 page=0 chnl=15
char id=53 x=40 y=205 width=8 height=15 xoffset=0 yoffset=9 xadvance=8 page=0 chnl=15
char id=54 x=31 y=215 width=9 height=15 xoffset=0 yoffset=9 xadvance=8 page=0 chnl=15
char id=55 x=28 y=181 width=8 height=17 xoffset=0 yoffset=8 xadvance=8 page=0 chnl=15
char id=56 x=40 y=220 width=8 height=15 xoffset=0 yoffset=9 xadvance=8 page=0 chnl=15
char id=57 x=36 y=168 width=9 height=15 xoffset=0 yoffset=9 xadvance=8 page=0 chnl=15
char id=58 x=57 y=46 width=4 height=11 xoffset=0 yoffset=13 xadvance=4 page=0 chnl=15
char id=59 x=58 y=16 width=4 height=15 xoffset=0 yoffset=13 xadvance=4 page=0 chnl=15
char id=60 x=21 y=206 width=9 height=9 xoffset=0 yoffset=12 xadvance=9 page=0 chnl=15
char id=61 x=28 y=198 width=9 height=7 xoffset=1 yoffset=13 xadvance=10 page=0 chnl=15
char id=62 x=30 y=247 width=9 height=9 xoffset=0 yoffset=12 xadvance=9 page=0 chnl=15
char id=63 x=38 y=86 width=7 height=15 xoffset=0 yoffset=9 xadvance=7 page=0 chnl=15
char id=64 x=0 y=150 width=13 height=16 xoffset=0 yoffset=8 xadvance=13 page=0 chnl=15
char id=65 x=0 y=0 width=14 height=20 xoffset=-1 yoffset=8 xadvance=12 page=0 chnl=15
char id=66 x=0 y=201 width=11 height=17 xoffset=0 yoffset=7 xadvance=12 page=0 chnl=15
char id=67 x=45 y=0 width=12 height=16 xoffset=0 yoffset=8 xadvance=12 page=0 chnl=15
char id=68 x=0 y=114 width=14 height=16 xoffset=0 yoffset=8 xadvance=14 page=0 chnl=15
char id=69 x=16 y=78 width=12 height=15 xoffset=0 yoffset=9 xadvance=12 page=0 chnl=15
char id=70 x=0 y=93 width=11 height=21 xoffset=0 yoffset=9 xadvance=10 page=0 chnl=15
char id=71 x=57 y=0 width=12 height=16 xoffset=0 yoffset=8 xadvance=13 page=0 chnl=15
char id=72 x=0 y=61 width=16 height=17 xoffset=0 yoffset=8 xadvance=15 page=0 chnl=15
char id=73 x=44 y=101 width=7 height=15 xoffset=0 yoffset=9 xadvance=7 page=0 chnl=15
char id=74 x=27 y=36 width=10 height=22 xoffset=-3 yoffset=8 xadvance=7 page=0 chnl=15
char id=75 x=11 y=130 width=13 height=16 xoffset=0 yoffset=9 xadvance=12 page=0 chnl=15
char id=76 x=14 y=114 width=13 height=16 xoffset=-1 yoffset=9 xadvance=11 page=0 chnl=15
char id=77 x=0 y=78 width=16 height=15 xoffset=0 yoffset=9 xadvance=16 page=0 chnl=15
char id=78 x=30 y=0 width=15 height=16 xoffset=0 yoffset=9 xadvance=15 page=0 chnl=15
char id=79 x=11 y=93 width=14 height=16 xoffset=0 yoffset=8 xadvance=14 page=0 chnl=15
char id=80 x=0 y=130 width=11 height=20 xoffset=0 yoffset=9 xadvance=11 page=0 chnl=15
char id=81 x=0 y=20 width=14 height=20 xoffset=0 yoffset=8 xadvance=14 page=0 chnl=15
char id=82 x=13 y=40 width=14 height=19 xoffset=0 yoffset=9 xadvance=12 page=0 chnl=15
char id=83 x=27 y=114 width=9 height=16 xoffset=0 yoffset=8 xadvance=9 page=0 chnl=15
char id=84 x=14 y=16 width=12 height=21 xoffset=0 yoffset=8 xadvance=12 page=0 chnl=15
char id=85 x=25 y=93 width=13 height=16 xoffset=0 yoffset=8 xadvance=14 page=0 chnl=15
char id=86 x=29 y=58 width=13 height=16 xoffset=0 yoffset=8 xadvance=12 page=0 chnl=15
char id=87 x=14 y=0 width=16 height=16 xoffset=0 yoffset=9 xadvance=16 page=0 chnl=15
char id=88 x=16 y=61 width=13 height=17 xoffset=0 yoffset=8 xadvance=12 page=0 chnl=15
char id=89 x=0 y=40 width=13 height=21 xoffset=-1 yoffset=9 xadvance=12 page=0 chnl=15
char id=90 x=0 y=166 width=12 height=16 xoffset=0 yoffset=8 xadvance=12 page=0 chnl=15
char id=91 x=44 y=141 width=6 height=22 xoffset=2 yoffset=8 xadvance=7 page=0 chnl=15
char id=92 x=48 y=16 width=10 height=20 xoffset=0 yoffset=7 xadvance=10 page=0 chnl=15
char id=93 x=24 y=215 width=7 height=22 xoffset=-2 yoffset=8 xadvance=7 page=0 chnl=15
char id=94 x=20 y=109 width=6 height=5 xoffset=0 yoffset=8 xadvance=7 page=0 chnl=15
char id=95 x=13 y=59 width=11 height=2 xoffset=-1 yoffset=28 xadvance=9 page=0 chnl=15
char id=96 x=26 y=109 width=4 height=5 xoffset=1 yoffset=7 xadvance=6 page=0 chnl=15
char id=97 x=49 y=36 width=8 height=10 xoffset=0 yoffset=14 xadvance=8 page=0 chnl=15
char id=98 x=0 y=240 width=10 height=16 xoffset=0 yoffset=8 xadvance=10 page=0 chnl=15
char id=99 x=49 y=46 width=8 height=10 xoffset=0 yoffset=14 xadvance=8 page=0 chnl=15
char id=100 x=13 y=146 width=10 height=17 xoffset=0 yoffset=8 xadvance=10 page=0 chnl=15
char id=101 x=49 y=56 width=8 height=10 xoffset=0 yoffset=14 xadvance=8 page=0 chnl=15
char id=102 x=0 y=218 width=8 height=22 xoffset=0 yoffset=8 xadvance=5 page=0 chnl=15
char id=103 x=0 y=182 width=10 height=19 xoffset=-1 yoffset=14 xadvance=10 page=0 chnl=15
char id=104 x=11 y=198 width=10 height=17 xoffset=0 yoffset=8 xadvance=10 page=0 chnl=15
char id=105 x=51 y=98 width=6 height=15 xoffset=-1 yoffset=9 xadvance=5 page=0 chnl=15
char id=106 x=8 y=218 width=8 height=22 xoffset=-4 yoffset=8 xadvance=5 page=0 chnl=15
char id=107 x=10 y=240 width=10 height=16 xoffset=0 yoffset=8 xadvance=9 page=0 chnl=15
char id=108 x=53 y=79 width=5 height=16 xoffset=0 yoffset=8 xadvance=5 page=0 chnl=15
char id=109 x=30 y=237 width=15 height=10 xoffset=0 yoffset=14 xadvance=15 page=0 chnl=15
char id=110 x=30 y=205 width=10 height=10 xoffset=0 yoffset=14 xadvance=10 page=0 chnl=15
char id=111 x=44 y=116 width=9 height=10 xoffset=0 yoffset=14 xadvance=9 page=0 chnl=15
char id=112 x=20 y=237 width=10 height=17 xoffset=0 yoffset=13 xadvance=10 page=0 chnl=15
char id=113 x=12 y=166 width=11 height=16 xoffset=0 yoffset=14 xadvance=10 page=0 chnl=15
char id=114 x=55 y=66 width=7 height=10 xoffset=0 yoffset=14 xadvance=6 page=0 chnl=15
char id=115 x=57 y=36 width=7 height=10 xoffset=0 yoffset=14 xadvance=7 page=0 chnl=15
char id=116 x=37 y=145 width=7 height=19 xoffset=0 yoffset=10 xadvance=6 page=0 chnl=15
char id=117 x=46 y=246 width=10 height=10 xoffset=0 yoffset=14 xadvance=10 page=0 chnl=15
char id=118 x=45 y=86 width=8 height=12 xoffset=0 yoffset=13 xadvance=8 page=0 chnl=15
char id=119 x=23 y=170 width=13 height=11 xoffset=0 yoffset=14 xadvance=13 page=0 chnl=15
char id=120 x=45 y=235 width=10 height=11 xoffset=-1 yoffset=14 xadvance=9 page=0 chnl=15
char id=121 x=37 y=36 width=12 height=17 xoffset=-3 yoffset=14 xadvance=9 page=0 chnl=15
char id=122 x=47 y=68 width=8 height=11 xoffset=0 yoffset=13 xadvance=8 page=0 chnl=15
char id=123 x=30 y=146 width=7 height=22 xoffset=1 yoffset=7 xadvance=7 page=0 chnl=15
char id=124 x=45 y=163 width=2 height=22 xoffset=3 yoffset=8 xadvance=8 page=0 chnl=15
char id=125 x=16 y=215 width=8 height=22 xoffset=-2 yoffset=7 xadvance=7 page=0 chnl=15
char id=126 x=11 y=109 width=9 height=5 xoffset=1 yoffset=11 xadvance=10 page=0 chnl=15
kernings count=0
